%YAML 1.1
%TAG !u! tag:unity3d.com,2011:
--- !u!114 &11400000
MonoBehaviour:
  m_ObjectHideFlags: 0
  m_CorrespondingSourceObject: {fileID: 0}
  m_PrefabInternal: {fileID: 0}
  m_GameObject: {fileID: 0}
  m_Enabled: 1
  m_EditorHideFlags: 0
  m_Script: {fileID: 11500000, guid: 8360598f9bf245a41b73b252ac68ccad, type: 3}
  m_Name: AppStateMetadata-1
  m_EditorClassIdentifier: 
  dataState: 0
  currentState: 
  stateIsLocked: 0
